Reproducible Research Assignment 1
…
We observed, that of the 17,568 values, a number of entries in the steps variable have multiple na values, lets filter the activity_by_date data frame to exclude rows that contain na values.

activity_by_date_filtered <- filter(activity_by_date, !is.na(steps))
length(activity_by_date_filtered$steps)

## [1] 15264

What is the overall distribution of the total number of steps taken

Here, we can see that we have reduced the number of rows to 15,264 after excluding the na values. So with this information and the data grouped by date, we can now summarize the data to report the total number of steps per unit time.

activity_summary <- summarize(activity_by_date_filtered, total_steps = sum(steps, na.rm = TRUE))
activity_summary

## # A tibble: 53 x 2
##          date total_steps
##        <date>       <int>
## 1  2012-10-02         126
## 2  2012-10-03       11352
## 3  2012-10-04       12116
## 4  2012-10-05       13294
## 5  2012-10-06       15420
## 6  2012-10-07       11015
## 7  2012-10-09       12811
## 8  2012-10-10        9900
## 9  2012-10-11       10304
## 10 2012-10-12       17382
## # ... with 43 more rows
…
median(activity_summary$total_steps) 

## [1] 10765

Now lets identify the average daily activity of the users

We now group the activity data by the time interval and remove the na values as we had done previously. This time, we shall be creating a variable called average_steps which would contain the mean value of the number of steps taken at each time interval within the data set.

activity_by_interval <- group_by(activity, interval)
activity_by_interval_filtered <- filter(activity_by_interval, !is.na(steps))
activity_summary_interval <- summarize(activity_by_interval_filtered, average_steps = mean(steps, na.rm = TRUE))
activity_summary_interval

## # A tibble: 288 x 2
##    interval average_steps
##       <int>         <dbl>
## 1         0     1.7169811
## 2         5     0.3396226
## 3        10     0.1320755
## 4        15     0.1509434
## 5        20     0.0754717
## 6        25     2.0943396
## 7        30     0.5283019
## 8        35     0.8679245
## 9        40     0.0000000
## 10       45     1.4716981
## # ... with 278 more rows
…
